%YAML 1.1
%TAG !u! tag:unity3d.com,2011:
--- !u!114 &11400000
MonoBehaviour:
  m_ObjectHideFlags: 0
  m_CorrespondingSourceObject: {fileID: 0}
  m_PrefabInstance: {fileID: 0}
  m_PrefabAsset: {fileID: 0}
  m_GameObject: {fileID: 0}
  m_Enabled: 1
  m_EditorHideFlags: 0
  m_Script: {fileID: 11500000, guid: 39f7cd751aaa960479a82b25a7313851, type: 3}
  m_Name: CarProfileList
  m_EditorClassIdentifier: 
  profileList:
  - {fileID: 11400000, guid: aacb3016b42935e49b0f24325c14d3a9, type: 2}
  - {fileID: 11400000, guid: 5715d5607e32c124d88bd3e578a21694, type: 2}
