%YAML 1.1
%TAG !u! tag:unity3d.com,2011:
--- !u!74 &7400000
AnimationClip:
  m_ObjectHideFlags: 0
  m_PrefabParentObject: {fileID: 0}
  m_PrefabInternal: {fileID: 0}
  m_Name: Boat_Animation
  serializedVersion: 6
  m_Legacy: 0
  m_Compressed: 0
  m_UseHighQualityCurve: 1
  m_RotationCurves:
  - curve:
      serializedVersion: 2
      m_Curve:
      - serializedVersion: 2
        time: 0
        value: {x: 0.0036764564, y: 0.7352233, z: -0.0025392747, w: 0.6778103}
        inSlope: {x: -0.015698364, y: -0.007908642, z: 0.008411653, w: 0.008628368}
        outSlope: {x: -0.015698364, y: -0.007908642, z: 0.008411653, w: 0.008628368}
        tangentMode: 0
      - serializedVersion: 2
        time: 0.2
        value: {x: 0.0005367837, y: 0.73364156, z: -0.000856944, w: 0.679536}
        inSlope: {x: -0.016587285, y: -0.008255541, z: 0.008678276, w: 0.008929819}
        outSlope: {x: -0.016587285, y: -0.008255541, z: 0.008678276, w: 0.008929819}
        tangentMode: 0
      - serializedVersion: 2
        time: 0.4
        value: {x: -0.002958458, y: 0.7319211, z: 0.00093203573, w: 0.68138224}
        inSlope: {x: -0.017063096, y: -0.00850603, z: 0.008750963, w: 0.009054244}
        outSlope: {x: -0.017063096, y: -0.00850603, z: 0.008750963, w: 0.009054244}
        tangentMode: 0
      - serializedVersion: 2
        time: 0.6
        value: {x: -0.006288455, y: 0.73023915, z: 0.0026434413, w: 0.6831577}
        inSlope: {x: -0.014926246, y: -0.007842481, z: 0.007923471, w: 0.008226931}
        outSlope: {x: -0.014926246, y: -0.007842481, z: 0.007923471, w: 0.008226931}
        tangentMode: 0
      - serializedVersion: 2
        time: 0.8
        value: {x: -0.008928956, y: 0.7287841, z: 0.004101424, w: 0.684673}
        inSlope: {x: -0.01016182, y: -0.006215424, z: 0.0062320866, w: 0.006460846}
        outSlope: {x: -0.01016182, y: -0.006215424, z: 0.0062320866, w: 0.006460846}
        tangentMode: 0
      - serializedVersion: 2
        time: 1
        value: {x: -0.010353182, y: 0.727753, z: 0.0051362757, w: 0.685742}
        inSlope: {x: -0.0032033913, y: -0.0039319694, z: 0.004080898, w: 0.0041021407}
        outSlope: {x: -0.0032033913, y: -0.0039319694, z: 0.004080898, w: 0.0041021407}
        tangentMode: 0
      - serializedVersion: 2
        time: 1.2
        value: {x: -0.010210313, y: 0.7272113, z: 0.0057337834, w: 0.68631387}
        inSlope: {x: 0.00376427, y: -0.0017936523, z: 0.0021975203, w: 0.0019361074}
        outSlope: {x: 0.00376427, y: -0.0017936523, z: 0.0021975203, w: 0.0019361074}
        tangentMode: 0
      - serializedVersion: 2
        time: 1.4000001
        value: {x: -0.008847474, y: 0.7270355, z: 0.006015284, w: 0.68651646}
        inSlope: {x: 0.008564116, y: -0.00018402928, z: 0.00069913553, w: 0.00029504293}
        outSlope: {x: 0.008564116, y: -0.00018402928, z: 0.00069913553, w: 0.00029504293}
        tangentMode: 0
      - serializedVersion: 2
        time: 1.6000001
        value: {x: -0.0067846654, y: 0.7271377, z: 0.0060134376, w: 0.6864319}
        inSlope: {x: 0.0107619455, y: 0.0009901819, z: -0.0006389488, w: -0.00093892193}
        outSlope: {x: 0.0107619455, y: 0.0009901819, z: -0.0006389488, w: -0.00093892193}
        tangentMode: 0
      - serializedVersion: 2
        time: 1.8000002
        value: {x: -0.004542695, y: 0.7274316, z: 0.0057597044, w: 0.6861409}
        inSlope: {x: 0.010354693, y: 0.0017492468, z: -0.0018170297, w: -0.0017687674}
        outSlope: {x: 0.010354693, y: 0.0017492468, z: -0.0018170297, w: -0.0017687674}
        tangentMode: 0
      - serializedVersion: 2
        time: 2.0000002
        value: {x: -0.0026427873, y: 0.7278374, z: 0.0052866256, w: 0.6857244}
        inSlope: {x: 0.009567666, y: 0.0025819237, z: -0.0039690016, w: -0.002675801}
        outSlope: {x: 0.009567666, y: 0.0025819237, z: -0.0039690016, w: -0.002675801}
        tangentMode: 0
      - serializedVersion: 2
        time: 2.2000003
        value: {x: -0.0007156277, y: 0.72846437, z: 0.0041721035, w: 0.6850706}
        inSlope: {x: 0.010747797, y: 0.003834962, z: -0.0074125715, w: -0.004030912}
        outSlope: {x: 0.010747797, y: 0.003834962, z: -0.0074125715, w: -0.004030912}
        tangentMode: 0
      - serializedVersion: 2
        time: 2.4000003
        value: {x: 0.0016563324, y: 0.72937137, z: 0.0023215963, w: 0.684112}
        inSlope: {x: 0.011853869, y: 0.004865526, z: -0.009772956, w: -0.005185454}
        outSlope: {x: 0.011853869, y: 0.004865526, z: -0.009772956, w: -0.005185454}
        tangentMode: 0
      - serializedVersion: 2
        time: 2.6000004
        value: {x: 0.004025921, y: 0.7304106, z: 0.00026292016, w: 0.6829964}
        inSlope: {x: 0.010734642, y: 0.00517398, z: -0.009483331, w: -0.005587189}
        outSlope: {x: 0.010734642, y: 0.00517398, z: -0.009483331, w: -0.005587189}
        tangentMode: 0
      - serializedVersion: 2
        time: 2.8000004
        value: {x: 0.0059501906, y: 0.73144096, z: -0.0014717372, w: 0.68187714}
        inSlope: {x: 0.007412378, y: 0.0047920635, z: -0.006521969, w: -0.005209147}
        outSlope: {x: 0.007412378, y: 0.0047920635, z: -0.006521969, w: -0.005209147}
        tangentMode: 0
      - serializedVersion: 2
        time: 3.0000005
        value: {x: 0.0069908733, y: 0.7323274, z: -0.0023458682, w: 0.68091273}
        inSlope: {x: 0.0019058406, y: 0.0037357202, z: -0.00087202224, w: -0.0040359786}
        outSlope: {x: 0.0019058406, y: 0.0037357202, z: -0.00087202224, w: -0.0040359786}
        tangentMode: 0
      - serializedVersion: 2
        time: 3.2000005
        value: {x: 0.006712527, y: 0.73293525, z: -0.0018205461, w: 0.68026274}
        inSlope: {x: -0.0078491485, y: 0.0021126862, z: 0.009361543, w: -0.0022059674}
        outSlope: {x: -0.0078491485, y: 0.0021126862, z: 0.009361543, w: -0.0022059674}
        tangentMode: 0
      - serializedVersion: 2
        time: 3.4000006
        value: {x: 0.0038512133, y: 0.7331725, z: 0.0013987502, w: 0.68003035}
        inSlope: {x: -0.019467084, y: 0.0004565715, z: 0.021286393, w: -0.0004874169}
        outSlope: {x: -0.019467084, y: 0.0004565715, z: 0.021286393, w: -0.0004874169}
        tangentMode: 0
      - serializedVersion: 2
        time: 3.6000006
        value: {x: -0.0010743083, y: 0.7331179, z: 0.0066940133, w: 0.6800678}
        inSlope: {x: -0.024190474, y: -0.00062331546, z: 0.025840867, w: 0.0003874301}
        outSlope: {x: -0.024190474, y: -0.00062331546, z: 0.025840867, w: 0.0003874301}
        tangentMode: 0
      - serializedVersion: 2
        time: 3.8000007
        value: {x: -0.0058249794, y: 0.73292315, z: 0.011735099, w: 0.6801853}
        inSlope: {x: -0.017704166, y: -0.0007945301, z: 0.018759709, w: 0.00044777998}
        outSlope: {x: -0.017704166, y: -0.0007945301, z: 0.018759709, w: 0.00044777998}
        tangentMode: 0
      - serializedVersion: 2
        time: 4.0000005
        value: {x: -0.008155974, y: 0.73280007, z: 0.014197895, w: 0.6802469}
        inSlope: {x: -0.0027742938, y: -0.000045597582, z: 0.002991502, w: -0.000031143456}
        outSlope: {x: -0.0027742938, y: -0.000045597582, z: 0.002991502, w: -0.000031143456}
        tangentMode: 0
      - serializedVersion: 2
        time: 4.2000003
        value: {x: -0.006934696, y: 0.7329049, z: 0.012931699, w: 0.68017286}
        inSlope: {x: 0.011758415, y: 0.00080525957, z: -0.012303013, w: -0.0005550688}
        outSlope: {x: 0.011758415, y: 0.00080525957, z: -0.012303013, w: -0.0005550688}
        tangentMode: 0
      - serializedVersion: 2
        time: 4.4
        value: {x: -0.0034526123, y: 0.73312217, z: 0.009276695, w: 0.68002486}
        inSlope: {x: 0.01959613, y: 0.0009541223, z: -0.020702116, w: -0.0006742782}
        outSlope: {x: 0.01959613, y: 0.0009541223, z: -0.020702116, w: -0.0006742782}
        tangentMode: 0
      - serializedVersion: 2
        time: 4.6
        value: {x: 0.00090374856, y: 0.73328656, z: 0.0046508606, w: 0.67990315}
        inSlope: {x: 0.020511484, y: 0.00034391912, z: -0.021999922, w: -0.00023260736}
        outSlope: {x: 0.020511484, y: 0.00034391912, z: -0.021999922, w: -0.00023260736}
        tangentMode: 0
      - serializedVersion: 2
        time: 4.7999997
        value: {x: 0.004751973, y: 0.73325974, z: 0.00047673448, w: 0.6799318}
        inSlope: {x: 0.014521963, y: -0.00087827526, z: -0.016178537, w: 0.0008989879}
        outSlope: {x: 0.014521963, y: -0.00087827526, z: -0.016178537, w: 0.0008989879}
        tangentMode: 0
      - serializedVersion: 2
        time: 4.9999995
        value: {x: 0.006712528, y: 0.73293525, z: -0.0018205475, w: 0.68026274}
        inSlope: {x: 0.0040535503, y: -0.002725574, z: -0.005576614, w: 0.0028966395}
        outSlope: {x: 0.0040535503, y: -0.002725574, z: -0.005576614, w: 0.0028966395}
        tangentMode: 0
      - serializedVersion: 2
        time: 5.1999993
        value: {x: 0.0063733915, y: 0.7321695, z: -0.0017539088, w: 0.6810905}
        inSlope: {x: -0.005153199, y: -0.00474066, z: 0.0038592753, w: 0.0051423954}
        outSlope: {x: -0.005153199, y: -0.00474066, z: 0.0038592753, w: 0.0051423954}
        tangentMode: 0
      - serializedVersion: 2
        time: 5.399999
        value: {x: 0.0046512503, y: 0.731039, z: -0.0002768389, w: 0.6823197}
        inSlope: {x: -0.010534124, y: -0.0059787985, z: 0.00907075, w: 0.0064693457}
        outSlope: {x: -0.010534124, y: -0.0059787985, z: 0.00907075, w: 0.0064693457}
        tangentMode: 0
      - serializedVersion: 2
        time: 5.599999
        value: {x: 0.0021597457, y: 0.729778, z: 0.0018743876, w: 0.6836782}
        inSlope: {x: -0.012830392, y: -0.0060299095, z: 0.010616183, w: 0.006448633}
        outSlope: {x: -0.012830392, y: -0.0060299095, z: 0.010616183, w: 0.006448633}
        tangentMode: 0
      - serializedVersion: 2
        time: 5.7999988
        value: {x: -0.00048090168, y: 0.728627, z: 0.00396963, w: 0.68489915}
        inSlope: {x: -0.01200632, y: -0.0048515247, z: 0.0085305935, w: 0.0051154243}
        outSlope: {x: -0.01200632, y: -0.0048515247, z: 0.0085305935, w: 0.0051154243}
        tangentMode: 0
      - serializedVersion: 2
        time: 5.9999986
        value: {x: -0.0026427775, y: 0.7278374, z: 0.005286622, w: 0.6857244}
        inSlope: {x: -0.010405564, y: -0.0031273095, z: 0.004662289, w: 0.0032486052}
        outSlope: {x: -0.010405564, y: -0.0031273095, z: 0.004662289, w: 0.0032486052}
        tangentMode: 0
      - serializedVersion: 2
        time: 6.1999984
        value: {x: -0.004643123, y: 0.7273761, z: 0.005834544, w: 0.6861986}
        inSlope: {x: -0.010637318, y: -0.0019069033, z: 0.0020269079, w: 0.0019307453}
        outSlope: {x: -0.010637318, y: -0.0019069033, z: 0.0020269079, w: 0.0019307453}
        tangentMode: 0
      - serializedVersion: 2
        time: 6.399998
        value: {x: -0.0068977005, y: 0.7270746, z: 0.0060973843, w: 0.6864967}
        inSlope: {x: -0.010699274, y: -0.00095710246, z: 0.00059144164, w: 0.0009028622}
        outSlope: {x: -0.010699274, y: -0.00095710246, z: 0.00059144164, w: 0.0009028622}
        tangentMode: 0
      - serializedVersion: 2
        time: 6.599998
        value: {x: -0.008922828, y: 0.72699326, z: 0.0060711205, w: 0.68655974}
        inSlope: {x: -0.008344292, y: 0.00030621915, z: -0.0008625091, w: -0.0004212562}
        outSlope: {x: -0.008344292, y: 0.00030621915, z: -0.0008625091, w: -0.0004212562}
        tangentMode: 0
      - serializedVersion: 2
        time: 6.799998
        value: {x: -0.010235414, y: 0.7271971, z: 0.005752381, w: 0.6863282}
        inSlope: {x: -0.003575907, y: 0.0018993038, z: -0.00233709, w: -0.0020442922}
        outSlope: {x: -0.003575907, y: 0.0018993038, z: -0.00233709, w: -0.0020442922}
        tangentMode: 0
      - serializedVersion: 2
        time: 6.9999976
        value: {x: -0.01035319, y: 0.727753, z: 0.0051362854, w: 0.685742}
        inSlope: {x: 0.0032660794, y: 0.003967438, z: -0.004127352, w: -0.004137907}
        outSlope: {x: 0.0032660794, y: 0.003967438, z: -0.004127352, w: -0.004137907}
        tangentMode: 0
      - serializedVersion: 2
        time: 7.1999974
        value: {x: -0.0089289835, y: 0.7287841, z: 0.0041014417, w: 0.684673}
        inSlope: {x: 0.010161741, y: 0.0062154294, z: -0.0062320605, w: -0.006460852}
        outSlope: {x: 0.010161741, y: 0.0062154294, z: -0.0062320605, w: -0.006460852}
        tangentMode: 0
      - serializedVersion: 2
        time: 7.399997
        value: {x: -0.0062884977, y: 0.73023915, z: 0.0026434637, w: 0.6831577}
        inSlope: {x: 0.014926197, y: 0.007842489, z: -0.007923456, w: -0.0082267895}
        outSlope: {x: 0.014926197, y: 0.007842489, z: -0.007923456, w: -0.0082267895}
        tangentMode: 0
      - serializedVersion: 2
        time: 7.599997
        value: {x: -0.0029585103, y: 0.7319211, z: 0.0009320623, w: 0.6813823}
        inSlope: {x: 0.017063085, y: 0.008505889, z: -0.0087509565, w: -0.009054103}
        outSlope: {x: 0.017063085, y: 0.008505889, z: -0.0087509565, w: -0.009054103}
        tangentMode: 0
      - serializedVersion: 2
        time: 7.799997
        value: {x: 0.0005367298, y: 0.7336415, z: -0.0008569156, w: 0.67953604}
        inSlope: {x: 0.016587302, y: 0.008255484, z: -0.008678281, w: -0.008929905}
        outSlope: {x: 0.016587302, y: 0.008255484, z: -0.008678281, w: -0.008929905}
        tangentMode: 0
      - serializedVersion: 2
        time: 8
        value: {x: 0.0036764564, y: 0.7352233, z: -0.0025392747, w: 0.6778103}
        inSlope: {x: 0.015698386, y: 0.0079088155, z: -0.008411664, w: -0.00862853}
        outSlope: {x: 0.015698386, y: 0.0079088155, z: -0.008411664, w: -0.00862853}
        tangentMode: 0
      m_PreInfinity: 2
      m_PostInfinity: 2
      m_RotationOrder: 4
    path: 
  m_CompressedRotationCurves: []
  m_EulerCurves: []
  m_PositionCurves:
  - curve:
      serializedVersion: 2
      m_Curve:
      - serializedVersion: 2
        time: 0
        value: {x: 370.2, y: 8.821, z: 352.3}
        inSlope: {x: 0, y: 0.0069999695, z: 0}
        outSlope: {x: 0, y: 0.0069999695, z: 0}
        tangentMode: 0
      - serializedVersion: 2
        time: 1
        value: {x: 370.2, y: 8.828, z: 352.3}
        inSlope: {x: 0, y: 0, z: 0}
        outSlope: {x: 0, y: 0, z: 0}
        tangentMode: 0
      - serializedVersion: 2
        time: 2
        value: {x: 370.2, y: 8.821, z: 352.3}
        inSlope: {x: 0, y: -0.010166565, z: 0}
        outSlope: {x: 0, y: -0.010166565, z: 0}
        tangentMode: 0
      - serializedVersion: 2
        time: 3.2
        value: {x: 370.2, y: 8.805, z: 352.3}
        inSlope: {x: 0, y: 0.0077082724, z: 0}
        outSlope: {x: 0, y: 0.0077082724, z: 0}
        tangentMode: 0
      - serializedVersion: 2
        time: 4
        value: {x: 370.2, y: 8.828, z: 352.3}
        inSlope: {x: 0, y: 0.0028749714, z: 0}
        outSlope: {x: 0, y: 0.0028749714, z: 0}
        tangentMode: 0
      - serializedVersion: 2
        time: 5
        value: {x: 370.2, y: 8.805, z: 352.3}
        inSlope: {x: 0, y: -0.0034999847, z: 0}
        outSlope: {x: 0, y: -0.0034999847, z: 0}
        tangentMode: 0
      - serializedVersion: 2
        time: 6
        value: {x: 370.2, y: 8.821, z: 352.3}
        inSlope: {x: 0, y: 0.011499882, z: 0}
        outSlope: {x: 0, y: 0.011499882, z: 0}
        tangentMode: 0
      - serializedVersion: 2
        time: 7
        value: {x: 370.2, y: 8.828, z: 352.3}
        inSlope: {x: 0, y: 0, z: 0}
        outSlope: {x: 0, y: 0, z: 0}
        tangentMode: 0
      - serializedVersion: 2
        time: 8
        value: {x: 370.2, y: 8.821, z: 352.3}
        inSlope: {x: 0, y: -0.0069999695, z: 0}
        outSlope: {x: 0, y: -0.0069999695, z: 0}
        tangentMode: 0
      m_PreInfinity: 2
      m_PostInfinity: 2
      m_RotationOrder: 4
    path: 
  m_ScaleCurves: []
  m_FloatCurves: []
  m_PPtrCurves: []
  m_SampleRate: 5
  m_WrapMode: 0
  m_Bounds:
    m_Center: {x: 0, y: 0, z: 0}
    m_Extent: {x: 0, y: 0, z: 0}
  m_ClipBindingConstant:
    genericBindings:
    - serializedVersion: 2
      path: 0
      attribute: 1
      script: {fileID: 0}
      typeID: 4
      customType: 0
      isPPtrCurve: 0
    - serializedVersion: 2
      path: 0
      attribute: 2
      script: {fileID: 0}
      typeID: 4
      customType: 0
      isPPtrCurve: 0
    pptrCurveMapping: []
  m_AnimationClipSettings:
    serializedVersion: 2
    m_AdditiveReferencePoseClip: {fileID: 0}
    m_AdditiveReferencePoseTime: 0
    m_StartTime: 0
    m_StopTime: 8
    m_OrientationOffsetY: 0
    m_Level: 0
    m_CycleOffset: 0
    m_HasAdditiveReferencePose: 0
    m_LoopTime: 1
    m_LoopBlend: 0
    m_LoopBlendOrientation: 0
    m_LoopBlendPositionY: 0
    m_LoopBlendPositionXZ: 0
    m_KeepOriginalOrientation: 0
    m_KeepOriginalPositionY: 1
    m_KeepOriginalPositionXZ: 0
    m_HeightFromFeet: 0
    m_Mirror: 0
  m_EditorCurves:
  - curve:
      serializedVersion: 2
      m_Curve:
      - serializedVersion: 2
        time: 0
        value: 370.2
        inSlope: 0
        outSlope: 0
        tangentMode: 34
      - serializedVersion: 2
        time: 1
        value: 370.2
        inSlope: 0
        outSlope: 0
        tangentMode: 34
      - serializedVersion: 2
        time: 2
        value: 370.2
        inSlope: 0
        outSlope: 0
        tangentMode: 34
      - serializedVersion: 2
        time: 3.2
        value: 370.2
        inSlope: 0
        outSlope: 0
        tangentMode: 34
      - serializedVersion: 2
        time: 4
        value: 370.2
        inSlope: 0
        outSlope: 0
        tangentMode: 34
      - serializedVersion: 2
        time: 5
        value: 370.2
        inSlope: 0
        outSlope: 0
        tangentMode: 34
      - serializedVersion: 2
        time: 6
        value: 370.2
        inSlope: 0
        outSlope: 0
        tangentMode: 34
      - serializedVersion: 2
        time: 7
        value: 370.2
        inSlope: 0
        outSlope: 0
        tangentMode: 34
      - serializedVersion: 2
        time: 8
        value: 370.2
        inSlope: 0
        outSlope: 0
        tangentMode: 34
      m_PreInfinity: 2
      m_PostInfinity: 2
      m_RotationOrder: 4
    attribute: m_LocalPosition.x
    path: 
    classID: 4
    script: {fileID: 0}
  - curve:
      serializedVersion: 2
      m_Curve:
      - serializedVersion: 2
        time: 0
        value: 8.821
        inSlope: 0.0069999695
        outSlope: 0.0069999695
        tangentMode: 34
      - serializedVersion: 2
        time: 1
        value: 8.828
        inSlope: 0
        outSlope: 0
        tangentMode: 34
      - serializedVersion: 2
        time: 2
        value: 8.821
        inSlope: -0.010166565
        outSlope: -0.010166565
        tangentMode: 34
      - serializedVersion: 2
        time: 3.2
        value: 8.805
        inSlope: 0.0077082724
        outSlope: 0.0077082724
        tangentMode: 34
      - serializedVersion: 2
        time: 4
        value: 8.828
        inSlope: 0.0028749714
        outSlope: 0.0028749714
        tangentMode: 34
      - serializedVersion: 2
        time: 5
        value: 8.805
        inSlope: -0.0034999847
        outSlope: -0.0034999847
        tangentMode: 34
      - serializedVersion: 2
        time: 6
        value: 8.821
        inSlope: 0.011499882
        outSlope: 0.011499882
        tangentMode: 34
      - serializedVersion: 2
        time: 7
        value: 8.828
        inSlope: 0
        outSlope: 0
        tangentMode: 34
      - serializedVersion: 2
        time: 8
        value: 8.821
        inSlope: -0.0069999695
        outSlope: -0.0069999695
        tangentMode: 34
      m_PreInfinity: 2
      m_PostInfinity: 2
      m_RotationOrder: 4
    attribute: m_LocalPosition.y
    path: 
    classID: 4
    script: {fileID: 0}
  - curve:
      serializedVersion: 2
      m_Curve:
      - serializedVersion: 2
        time: 0
        value: 352.3
        inSlope: 0
        outSlope: 0
        tangentMode: 34
      - serializedVersion: 2
        time: 1
        value: 352.3
        inSlope: 0
        outSlope: 0
        tangentMode: 34
      - serializedVersion: 2
        time: 2
        value: 352.3
        inSlope: 0
        outSlope: 0
        tangentMode: 34
      - serializedVersion: 2
        time: 3.2
        value: 352.3
        inSlope: 0
        outSlope: 0
        tangentMode: 34
      - serializedVersion: 2
        time: 4
        value: 352.3
        inSlope: 0
        outSlope: 0
        tangentMode: 34
      - serializedVersion: 2
        time: 5
        value: 352.3
        inSlope: 0
        outSlope: 0
        tangentMode: 34
      - serializedVersion: 2
        time: 6
        value: 352.3
        inSlope: 0
        outSlope: 0
        tangentMode: 34
      - serializedVersion: 2
        time: 7
        value: 352.3
        inSlope: 0
        outSlope: 0
        tangentMode: 34
      - serializedVersion: 2
        time: 8
        value: 352.3
        inSlope: 0
        outSlope: 0
        tangentMode: 34
      m_PreInfinity: 2
      m_PostInfinity: 2
      m_RotationOrder: 4
    attribute: m_LocalPosition.z
    path: 
    classID: 4
    script: {fileID: 0}
  - curve:
      serializedVersion: 2
      m_Curve:
      - serializedVersion: 2
        time: 0
        value: 0.0036764564
        inSlope: -0.015698364
        outSlope: -0.015698364
        tangentMode: 0
      - serializedVersion: 2
        time: 0.2
        value: 0.0005367837
        inSlope: -0.016587285
        outSlope: -0.016587285
        tangentMode: 0
      - serializedVersion: 2
        time: 0.4
        value: -0.002958458
        inSlope: -0.017063096
        outSlope: -0.017063096
        tangentMode: 0
      - serializedVersion: 2
        time: 0.6
        value: -0.006288455
        inSlope: -0.014926246
        outSlope: -0.014926246
        tangentMode: 0
      - serializedVersion: 2
        time: 0.8
        value: -0.008928956
        inSlope: -0.01016182
        outSlope: -0.01016182
        tangentMode: 0
      - serializedVersion: 2
        time: 1
        value: -0.010353182
        inSlope: -0.0032033913
        outSlope: -0.0032033913
        tangentMode: 0
      - serializedVersion: 2
        time: 1.2
        value: -0.010210313
        inSlope: 0.00376427
        outSlope: 0.00376427
        tangentMode: 0
      - serializedVersion: 2
        time: 1.4000001
        value: -0.008847474
        inSlope: 0.008564116
        outSlope: 0.008564116
        tangentMode: 0
      - serializedVersion: 2
        time: 1.6000001
        value: -0.0067846654
        inSlope: 0.0107619455
        outSlope: 0.0107619455
        tangentMode: 0
      - serializedVersion: 2
        time: 1.8000002
        value: -0.004542695
        inSlope: 0.010354693
        outSlope: 0.010354693
        tangentMode: 0
      - serializedVersion: 2
        time: 2.0000002
        value: -0.0026427873
        inSlope: 0.009567666
        outSlope: 0.009567666
        tangentMode: 0
      - serializedVersion: 2
        time: 2.2000003
        value: -0.0007156277
        inSlope: 0.010747797
        outSlope: 0.010747797
        tangentMode: 0
      - serializedVersion: 2
        time: 2.4000003
        value: 0.0016563324
        inSlope: 0.011853869
        outSlope: 0.011853869
        tangentMode: 0
      - serializedVersion: 2
        time: 2.6000004
        value: 0.004025921
        inSlope: 0.010734642
        outSlope: 0.010734642
        tangentMode: 0
      - serializedVersion: 2
        time: 2.8000004
        value: 0.0059501906
        inSlope: 0.007412378
        outSlope: 0.007412378
        tangentMode: 0
      - serializedVersion: 2
        time: 3.0000005
        value: 0.0069908733
        inSlope: 0.0019058406
        outSlope: 0.0019058406
        tangentMode: 0
      - serializedVersion: 2
        time: 3.2000005
        value: 0.006712527
        inSlope: -0.0078491485
        outSlope: -0.0078491485
        tangentMode: 0
      - serializedVersion: 2
        time: 3.4000006
        value: 0.0038512133
        inSlope: -0.019467084
        outSlope: -0.019467084
        tangentMode: 0
      - serializedVersion: 2
        time: 3.6000006
        value: -0.0010743083
        inSlope: -0.024190474
        outSlope: -0.024190474
        tangentMode: 0
      - serializedVersion: 2
        time: 3.8000007
        value: -0.0058249794
        inSlope: -0.017704166
        outSlope: -0.017704166
        tangentMode: 0
      - serializedVersion: 2
        time: 4.0000005
        value: -0.008155974
        inSlope: -0.0027742938
        outSlope: -0.0027742938
        tangentMode: 0
      - serializedVersion: 2
        time: 4.2000003
        value: -0.006934696
        inSlope: 0.011758415
        outSlope: 0.011758415
        tangentMode: 0
      - serializedVersion: 2
        time: 4.4
        value: -0.0034526123
        inSlope: 0.01959613
        outSlope: 0.01959613
        tangentMode: 0
      - serializedVersion: 2
        time: 4.6
        value: 0.00090374856
        inSlope: 0.020511484
        outSlope: 0.020511484
        tangentMode: 0
      - serializedVersion: 2
        time: 4.7999997
        value: 0.004751973
        inSlope: 0.014521963
        outSlope: 0.014521963
        tangentMode: 0
      - serializedVersion: 2
        time: 4.9999995
        value: 0.006712528
        inSlope: 0.0040535503
        outSlope: 0.0040535503
        tangentMode: 0
      - serializedVersion: 2
        time: 5.1999993
        value: 0.0063733915
        inSlope: -0.005153199
        outSlope: -0.005153199
        tangentMode: 0
      - serializedVersion: 2
        time: 5.399999
        value: 0.0046512503
        inSlope: -0.010534124
        outSlope: -0.010534124
        tangentMode: 0
      - serializedVersion: 2
        time: 5.599999
        value: 0.0021597457
        inSlope: -0.012830392
        outSlope: -0.012830392
        tangentMode: 0
      - serializedVersion: 2
        time: 5.7999988
        value: -0.00048090168
        inSlope: -0.01200632
        outSlope: -0.01200632
        tangentMode: 0
      - serializedVersion: 2
        time: 5.9999986
        value: -0.0026427775
        inSlope: -0.010405564
        outSlope: -0.010405564
        tangentMode: 0
      - serializedVersion: 2
        time: 6.1999984
        value: -0.004643123
        inSlope: -0.010637318
        outSlope: -0.010637318
        tangentMode: 0
      - serializedVersion: 2
        time: 6.399998
        value: -0.0068977005
        inSlope: -0.010699274
        outSlope: -0.010699274
        tangentMode: 0
      - serializedVersion: 2
        time: 6.599998
        value: -0.008922828
        inSlope: -0.008344292
        outSlope: -0.008344292
        tangentMode: 0
      - serializedVersion: 2
        time: 6.799998
        value: -0.010235414
        inSlope: -0.003575907
        outSlope: -0.003575907
        tangentMode: 0
      - serializedVersion: 2
        time: 6.9999976
        value: -0.01035319
        inSlope: 0.0032660794
        outSlope: 0.0032660794
        tangentMode: 0
      - serializedVersion: 2
        time: 7.1999974
        value: -0.0089289835
        inSlope: 0.010161741
        outSlope: 0.010161741
        tangentMode: 0
      - serializedVersion: 2
        time: 7.399997
        value: -0.0062884977
        inSlope: 0.014926197
        outSlope: 0.014926197
        tangentMode: 0
      - serializedVersion: 2
        time: 7.599997
        value: -0.0029585103
        inSlope: 0.017063085
        outSlope: 0.017063085
        tangentMode: 0
      - serializedVersion: 2
        time: 7.799997
        value: 0.0005367298
        inSlope: 0.016587302
        outSlope: 0.016587302
        tangentMode: 0
      - serializedVersion: 2
        time: 8
        value: 0.0036764564
        inSlope: 0.015698386
        outSlope: 0.015698386
        tangentMode: 0
      m_PreInfinity: 2
      m_PostInfinity: 2
      m_RotationOrder: 4
    attribute: m_LocalRotation.x
    path: 
    classID: 4
    script: {fileID: 0}
  - curve:
      serializedVersion: 2
      m_Curve:
      - serializedVersion: 2
        time: 0
        value: 0.7352233
        inSlope: -0.007908642
        outSlope: -0.007908642
        tangentMode: 0
      - serializedVersion: 2
        time: 0.2
        value: 0.73364156
        inSlope: -0.008255541
        outSlope: -0.008255541
        tangentMode: 0
      - serializedVersion: 2
        time: 0.4
        value: 0.7319211
        inSlope: -0.00850603
        outSlope: -0.00850603
        tangentMode: 0
      - serializedVersion: 2
        time: 0.6
        value: 0.73023915
        inSlope: -0.007842481
        outSlope: -0.007842481
        tangentMode: 0
      - serializedVersion: 2
        time: 0.8
        value: 0.7287841
        inSlope: -0.006215424
        outSlope: -0.006215424
        tangentMode: 0
      - serializedVersion: 2
        time: 1
        value: 0.727753
        inSlope: -0.0039319694
        outSlope: -0.0039319694
        tangentMode: 0
      - serializedVersion: 2
        time: 1.2
        value: 0.7272113
        inSlope: -0.0017936523
        outSlope: -0.0017936523
        tangentMode: 0
      - serializedVersion: 2
        time: 1.4000001
        value: 0.7270355
        inSlope: -0.00018402928
        outSlope: -0.00018402928
        tangentMode: 0
      - serializedVersion: 2
        time: 1.6000001
        value: 0.7271377
        inSlope: 0.0009901819
        outSlope: 0.0009901819
        tangentMode: 0
      - serializedVersion: 2
        time: 1.8000002
        value: 0.7274316
        inSlope: 0.0017492468
        outSlope: 0.0017492468
        tangentMode: 0
      - serializedVersion: 2
        time: 2.0000002
        value: 0.7278374
        inSlope: 0.0025819237
        outSlope: 0.0025819237
        tangentMode: 0
      - serializedVersion: 2
        time: 2.2000003
        value: 0.72846437
        inSlope: 0.003834962
        outSlope: 0.003834962
        tangentMode: 0
      - serializedVersion: 2
        time: 2.4000003
        value: 0.72937137
        inSlope: 0.004865526
        outSlope: 0.004865526
        tangentMode: 0
      - serializedVersion: 2
        time: 2.6000004
        value: 0.7304106
        inSlope: 0.00517398
        outSlope: 0.00517398
        tangentMode: 0
      - serializedVersion: 2
        time: 2.8000004
        value: 0.73144096
        inSlope: 0.0047920635
        outSlope: 0.0047920635
        tangentMode: 0
      - serializedVersion: 2
        time: 3.0000005
        value: 0.7323274
        inSlope: 0.0037357202
        outSlope: 0.0037357202
        tangentMode: 0
      - serializedVersion: 2
        time: 3.2000005
        value: 0.73293525
        inSlope: 0.0021126862
        outSlope: 0.0021126862
        tangentMode: 0
      - serializedVersion: 2
        time: 3.4000006
        value: 0.7331725
        inSlope: 0.0004565715
        outSlope: 0.0004565715
        tangentMode: 0
      - serializedVersion: 2
        time: 3.6000006
        value: 0.7331179
        inSlope: -0.00062331546
        outSlope: -0.00062331546
        tangentMode: 0
      - serializedVersion: 2
        time: 3.8000007
        value: 0.73292315
        inSlope: -0.0007945301
        outSlope: -0.0007945301
        tangentMode: 0
      - serializedVersion: 2
        time: 4.0000005
        value: 0.73280007
        inSlope: -0.000045597582
        outSlope: -0.000045597582
        tangentMode: 0
      - serializedVersion: 2
        time: 4.2000003
        value: 0.7329049
        inSlope: 0.00080525957
        outSlope: 0.00080525957
        tangentMode: 0
      - serializedVersion: 2
        time: 4.4
        value: 0.73312217
        inSlope: 0.0009541223
        outSlope: 0.0009541223
        tangentMode: 0
      - serializedVersion: 2
        time: 4.6
        value: 0.73328656
        inSlope: 0.00034391912
        outSlope: 0.00034391912
        tangentMode: 0
      - serializedVersion: 2
        time: 4.7999997
        value: 0.73325974
        inSlope: -0.00087827526
        outSlope: -0.00087827526
        tangentMode: 0
      - serializedVersion: 2
        time: 4.9999995
        value: 0.73293525
        inSlope: -0.002725574
        outSlope: -0.002725574
        tangentMode: 0
      - serializedVersion: 2
        time: 5.1999993
        value: 0.7321695
        inSlope: -0.00474066
        outSlope: -0.00474066
        tangentMode: 0
      - serializedVersion: 2
        time: 5.399999
        value: 0.731039
        inSlope: -0.0059787985
        outSlope: -0.0059787985
        tangentMode: 0
      - serializedVersion: 2
        time: 5.599999
        value: 0.729778
        inSlope: -0.0060299095
        outSlope: -0.0060299095
        tangentMode: 0
      - serializedVersion: 2
        time: 5.7999988
        value: 0.728627
        inSlope: -0.0048515247
        outSlope: -0.0048515247
        tangentMode: 0
      - serializedVersion: 2
        time: 5.9999986
        value: 0.7278374
        inSlope: -0.0031273095
        outSlope: -0.0031273095
        tangentMode: 0
      - serializedVersion: 2
        time: 6.1999984
        value: 0.7273761
        inSlope: -0.0019069033
        outSlope: -0.0019069033
        tangentMode: 0
      - serializedVersion: 2
        time: 6.399998
        value: 0.7270746
        inSlope: -0.00095710246
        outSlope: -0.00095710246
        tangentMode: 0
      - serializedVersion: 2
        time: 6.599998
        value: 0.72699326
        inSlope: 0.00030621915
        outSlope: 0.00030621915
        tangentMode: 0
      - serializedVersion: 2
        time: 6.799998
        value: 0.7271971
        inSlope: 0.0018993038
        outSlope: 0.0018993038
        tangentMode: 0
      - serializedVersion: 2
        time: 6.9999976
        value: 0.727753
        inSlope: 0.003967438
        outSlope: 0.003967438
        tangentMode: 0
      - serializedVersion: 2
        time: 7.1999974
        value: 0.7287841
        inSlope: 0.0062154294
        outSlope: 0.0062154294
        tangentMode: 0
      - serializedVersion: 2
        time: 7.399997
        value: 0.73023915
        inSlope: 0.007842489
        outSlope: 0.007842489
        tangentMode: 0
      - serializedVersion: 2
        time: 7.599997
        value: 0.7319211
        inSlope: 0.008505889
        outSlope: 0.008505889
        tangentMode: 0
      - serializedVersion: 2
        time: 7.799997
        value: 0.7336415
        inSlope: 0.008255484
        outSlope: 0.008255484
        tangentMode: 0
      - serializedVersion: 2
        time: 8
        value: 0.7352233
        inSlope: 0.0079088155
        outSlope: 0.0079088155
        tangentMode: 0
      m_PreInfinity: 2
      m_PostInfinity: 2
      m_RotationOrder: 4
    attribute: m_LocalRotation.y
    path: 
    classID: 4
    script: {fileID: 0}
  - curve:
      serializedVersion: 2
      m_Curve:
      - serializedVersion: 2
        time: 0
        value: -0.0025392747
        inSlope: 0.008411653
        outSlope: 0.008411653
        tangentMode: 0
      - serializedVersion: 2
        time: 0.2
        value: -0.000856944
        inSlope: 0.008678276
        outSlope: 0.008678276
        tangentMode: 0
      - serializedVersion: 2
        time: 0.4
        value: 0.00093203573
        inSlope: 0.008750963
        outSlope: 0.008750963
        tangentMode: 0
      - serializedVersion: 2
        time: 0.6
        value: 0.0026434413
        inSlope: 0.007923471
        outSlope: 0.007923471
        tangentMode: 0
      - serializedVersion: 2
        time: 0.8
        value: 0.004101424
        inSlope: 0.0062320866
        outSlope: 0.0062320866
        tangentMode: 0
      - serializedVersion: 2
        time: 1
        value: 0.0051362757
        inSlope: 0.004080898
        outSlope: 0.004080898
        tangentMode: 0
      - serializedVersion: 2
        time: 1.2
        value: 0.0057337834
        inSlope: 0.0021975203
        outSlope: 0.0021975203
        tangentMode: 0
      - serializedVersion: 2
        time: 1.4000001
        value: 0.006015284
        inSlope: 0.00069913553
        outSlope: 0.00069913553
        tangentMode: 0
      - serializedVersion: 2
        time: 1.6000001
        value: 0.0060134376
        inSlope: -0.0006389488
        outSlope: -0.0006389488
        tangentMode: 0
      - serializedVersion: 2
        time: 1.8000002
        value: 0.0057597044
        inSlope: -0.0018170297
        outSlope: -0.0018170297
        tangentMode: 0
      - serializedVersion: 2
        time: 2.0000002
        value: 0.0052866256
        inSlope: -0.0039690016
        outSlope: -0.0039690016
        tangentMode: 0
      - serializedVersion: 2
        time: 2.2000003
        value: 0.0041721035
        inSlope: -0.0074125715
        outSlope: -0.0074125715
        tangentMode: 0
      - serializedVersion: 2
        time: 2.4000003
        value: 0.0023215963
        inSlope: -0.009772956
        outSlope: -0.009772956
        tangentMode: 0
      - serializedVersion: 2
        time: 2.6000004
        value: 0.00026292016
        inSlope: -0.009483331
        outSlope: -0.009483331
        tangentMode: 0
      - serializedVersion: 2
        time: 2.8000004
        value: -0.0014717372
        inSlope: -0.006521969
        outSlope: -0.006521969
        tangentMode: 0
      - serializedVersion: 2
        time: 3.0000005
        value: -0.0023458682
        inSlope: -0.00087202224
        outSlope: -0.00087202224
        tangentMode: 0
      - serializedVersion: 2
        time: 3.2000005
        value: -0.0018205461
        inSlope: 0.009361543
        outSlope: 0.009361543
        tangentMode: 0
      - serializedVersion: 2
        time: 3.4000006
        value: 0.0013987502
        inSlope: 0.021286393
        outSlope: 0.021286393
        tangentMode: 0
      - serializedVersion: 2
        time: 3.6000006
        value: 0.0066940133
        inSlope: 0.025840867
        outSlope: 0.025840867
        tangentMode: 0
      - serializedVersion: 2
        time: 3.8000007
        value: 0.011735099
        inSlope: 0.018759709
        outSlope: 0.018759709
        tangentMode: 0
      - serializedVersion: 2
        time: 4.0000005
        value: 0.014197895
        inSlope: 0.002991502
        outSlope: 0.002991502
        tangentMode: 0
      - serializedVersion: 2
        time: 4.2000003
        value: 0.012931699
        inSlope: -0.012303013
        outSlope: -0.012303013
        tangentMode: 0
      - serializedVersion: 2
        time: 4.4
        value: 0.009276695
        inSlope: -0.020702116
        outSlope: -0.020702116
        tangentMode: 0
      - serializedVersion: 2
        time: 4.6
        value: 0.0046508606
        inSlope: -0.021999922
        outSlope: -0.021999922
        tangentMode: 0
      - serializedVersion: 2
        time: 4.7999997
        value: 0.00047673448
        inSlope: -0.016178537
        outSlope: -0.016178537
        tangentMode: 0
      - serializedVersion: 2
        time: 4.9999995
        value: -0.0018205475
        inSlope: -0.005576614
        outSlope: -0.005576614
        tangentMode: 0
      - serializedVersion: 2
        time: 5.1999993
        value: -0.0017539088
        inSlope: 0.0038592753
        outSlope: 0.0038592753
        tangentMode: 0
      - serializedVersion: 2
        time: 5.399999
        value: -0.0002768389
        inSlope: 0.00907075
        outSlope: 0.00907075
        tangentMode: 0
      - serializedVersion: 2
        time: 5.599999
        value: 0.0018743876
        inSlope: 0.010616183
        outSlope: 0.010616183
        tangentMode: 0
      - serializedVersion: 2
        time: 5.7999988
        value: 0.00396963
        inSlope: 0.0085305935
        outSlope: 0.0085305935
        tangentMode: 0
      - serializedVersion: 2
        time: 5.9999986
        value: 0.005286622
        inSlope: 0.004662289
        outSlope: 0.004662289
        tangentMode: 0
      - serializedVersion: 2
        time: 6.1999984
        value: 0.005834544
        inSlope: 0.0020269079
        outSlope: 0.0020269079
        tangentMode: 0
      - serializedVersion: 2
        time: 6.399998
        value: 0.0060973843
        inSlope: 0.00059144164
        outSlope: 0.00059144164
        tangentMode: 0
      - serializedVersion: 2
        time: 6.599998
        value: 0.0060711205
        inSlope: -0.0008625091
        outSlope: -0.0008625091
        tangentMode: 0
      - serializedVersion: 2
        time: 6.799998
        value: 0.005752381
        inSlope: -0.00233709
        outSlope: -0.00233709
        tangentMode: 0
      - serializedVersion: 2
        time: 6.9999976
        value: 0.0051362854
        inSlope: -0.004127352
        outSlope: -0.004127352
        tangentMode: 0
      - serializedVersion: 2
        time: 7.1999974
        value: 0.0041014417
        inSlope: -0.0062320605
        outSlope: -0.0062320605
        tangentMode: 0
      - serializedVersion: 2
        time: 7.399997
        value: 0.0026434637
        inSlope: -0.007923456
        outSlope: -0.007923456
        tangentMode: 0
      - serializedVersion: 2
        time: 7.599997
        value: 0.0009320623
        inSlope: -0.0087509565
        outSlope: -0.0087509565
        tangentMode: 0
      - serializedVersion: 2
        time: 7.799997
        value: -0.0008569156
        inSlope: -0.008678281
        outSlope: -0.008678281
        tangentMode: 0
      - serializedVersion: 2
        time: 8
        value: -0.0025392747
        inSlope: -0.008411664
        outSlope: -0.008411664
        tangentMode: 0
      m_PreInfinity: 2
      m_PostInfinity: 2
      m_RotationOrder: 4
    attribute: m_LocalRotation.z
    path: 
    classID: 4
    script: {fileID: 0}
  - curve:
      serializedVersion: 2
      m_Curve:
      - serializedVersion: 2
        time: 0
        value: 0.6778103
        inSlope: 0.008628368
        outSlope: 0.008628368
        tangentMode: 0
      - serializedVersion: 2
        time: 0.2
        value: 0.679536
        inSlope: 0.008929819
        outSlope: 0.008929819
        tangentMode: 0
      - serializedVersion: 2
        time: 0.4
        value: 0.68138224
        inSlope: 0.009054244
        outSlope: 0.009054244
        tangentMode: 0
      - serializedVersion: 2
        time: 0.6
        value: 0.6831577
        inSlope: 0.008226931
        outSlope: 0.008226931
        tangentMode: 0
      - serializedVersion: 2
        time: 0.8
        value: 0.684673
        inSlope: 0.006460846
        outSlope: 0.006460846
        tangentMode: 0
      - serializedVersion: 2
        time: 1
        value: 0.685742
        inSlope: 0.0041021407
        outSlope: 0.0041021407
        tangentMode: 0
      - serializedVersion: 2
        time: 1.2
        value: 0.68631387
        inSlope: 0.0019361074
        outSlope: 0.0019361074
        tangentMode: 0
      - serializedVersion: 2
        time: 1.4000001
        value: 0.68651646
        inSlope: 0.00029504293
        outSlope: 0.00029504293
        tangentMode: 0
      - serializedVersion: 2
        time: 1.6000001
        value: 0.6864319
        inSlope: -0.00093892193
        outSlope: -0.00093892193
        tangentMode: 0
      - serializedVersion: 2
        time: 1.8000002
        value: 0.6861409
        inSlope: -0.0017687674
        outSlope: -0.0017687674
        tangentMode: 0
      - serializedVersion: 2
        time: 2.0000002
        value: 0.6857244
        inSlope: -0.002675801
        outSlope: -0.002675801
        tangentMode: 0
      - serializedVersion: 2
        time: 2.2000003
        value: 0.6850706
        inSlope: -0.004030912
        outSlope: -0.004030912
        tangentMode: 0
      - serializedVersion: 2
        time: 2.4000003
        value: 0.684112
        inSlope: -0.005185454
        outSlope: -0.005185454
        tangentMode: 0
      - serializedVersion: 2
        time: 2.6000004
        value: 0.6829964
        inSlope: -0.005587189
        outSlope: -0.005587189
        tangentMode: 0
      - serializedVersion: 2
        time: 2.8000004
        value: 0.68187714
        inSlope: -0.005209147
        outSlope: -0.005209147
        tangentMode: 0
      - serializedVersion: 2
        time: 3.0000005
        value: 0.68091273
        inSlope: -0.0040359786
        outSlope: -0.0040359786
        tangentMode: 0
      - serializedVersion: 2
        time: 3.2000005
        value: 0.68026274
        inSlope: -0.0022059674
        outSlope: -0.0022059674
        tangentMode: 0
      - serializedVersion: 2
        time: 3.4000006
        value: 0.68003035
        inSlope: -0.0004874169
        outSlope: -0.0004874169
        tangentMode: 0
      - serializedVersion: 2
        time: 3.6000006
        value: 0.6800678
        inSlope: 0.0003874301
        outSlope: 0.0003874301
        tangentMode: 0
      - serializedVersion: 2
        time: 3.8000007
        value: 0.6801853
        inSlope: 0.00044777998
        outSlope: 0.00044777998
        tangentMode: 0
      - serializedVersion: 2
        time: 4.0000005
        value: 0.6802469
        inSlope: -0.000031143456
        outSlope: -0.000031143456
        tangentMode: 0
      - serializedVersion: 2
        time: 4.2000003
        value: 0.68017286
        inSlope: -0.0005550688
        outSlope: -0.0005550688
        tangentMode: 0
      - serializedVersion: 2
        time: 4.4
        value: 0.68002486
        inSlope: -0.0006742782
        outSlope: -0.0006742782
        tangentMode: 0
      - serializedVersion: 2
        time: 4.6
        value: 0.67990315
        inSlope: -0.00023260736
        outSlope: -0.00023260736
        tangentMode: 0
      - serializedVersion: 2
        time: 4.7999997
        value: 0.6799318
        inSlope: 0.0008989879
        outSlope: 0.0008989879
        tangentMode: 0
      - serializedVersion: 2
        time: 4.9999995
        value: 0.68026274
        inSlope: 0.0028966395
        outSlope: 0.0028966395
        tangentMode: 0
      - serializedVersion: 2
        time: 5.1999993
        value: 0.6810905
        inSlope: 0.0051423954
        outSlope: 0.0051423954
        tangentMode: 0
      - serializedVersion: 2
        time: 5.399999
        value: 0.6823197
        inSlope: 0.0064693457
        outSlope: 0.0064693457
        tangentMode: 0
      - serializedVersion: 2
        time: 5.599999
        value: 0.6836782
        inSlope: 0.006448633
        outSlope: 0.006448633
        tangentMode: 0
      - serializedVersion: 2
        time: 5.7999988
        value: 0.68489915
        inSlope: 0.0051154243
        outSlope: 0.0051154243
        tangentMode: 0
      - serializedVersion: 2
        time: 5.9999986
        value: 0.6857244
        inSlope: 0.0032486052
        outSlope: 0.0032486052
        tangentMode: 0
      - serializedVersion: 2
        time: 6.1999984
        value: 0.6861986
        inSlope: 0.0019307453
        outSlope: 0.0019307453
        tangentMode: 0
      - serializedVersion: 2
        time: 6.399998
        value: 0.6864967
        inSlope: 0.0009028622
        outSlope: 0.0009028622
        tangentMode: 0
      - serializedVersion: 2
        time: 6.599998
        value: 0.68655974
        inSlope: -0.0004212562
        outSlope: -0.0004212562
        tangentMode: 0
      - serializedVersion: 2
        time: 6.799998
        value: 0.6863282
        inSlope: -0.0020442922
        outSlope: -0.0020442922
        tangentMode: 0
      - serializedVersion: 2
        time: 6.9999976
        value: 0.685742
        inSlope: -0.004137907
        outSlope: -0.004137907
        tangentMode: 0
      - serializedVersion: 2
        time: 7.1999974
        value: 0.684673
        inSlope: -0.006460852
        outSlope: -0.006460852
        tangentMode: 0
      - serializedVersion: 2
        time: 7.399997
        value: 0.6831577
        inSlope: -0.0082267895
        outSlope: -0.0082267895
        tangentMode: 0
      - serializedVersion: 2
        time: 7.599997
        value: 0.6813823
        inSlope: -0.009054103
        outSlope: -0.009054103
        tangentMode: 0
      - serializedVersion: 2
        time: 7.799997
        value: 0.67953604
        inSlope: -0.008929905
        outSlope: -0.008929905
        tangentMode: 0
      - serializedVersion: 2
        time: 8
        value: 0.6778103
        inSlope: -0.00862853
        outSlope: -0.00862853
        tangentMode: 0
      m_PreInfinity: 2
      m_PostInfinity: 2
      m_RotationOrder: 4
    attribute: m_LocalRotation.w
    path: 
    classID: 4
    script: {fileID: 0}
  m_EulerEditorCurves:
  - curve:
      serializedVersion: 2
      m_Curve:
      - serializedVersion: 2
        time: 0
        value: 0.49949646
        inSlope: -1.7414856
        outSlope: -1.7414856
        tangentMode: 34
      - serializedVersion: 2
        time: 1
        value: -1.2419891
        inSlope: -0.5740509
        outSlope: -0.5740509
        tangentMode: 34
      - serializedVersion: 2
        time: 2
        value: -0.64860535
        inSlope: 0.8486849
        outSlope: 0.8486849
        tangentMode: 34
      - serializedVersion: 2
        time: 3.2
        value: 0.676178
        inSlope: -1.0133109
        outSlope: -1.0133109
        tangentMode: 34
      - serializedVersion: 2
        time: 4
        value: -1.8283081
        inSlope: -0.31306088
        outSlope: -0.31306088
        tangentMode: 34
      - serializedVersion: 2
        time: 5
        value: 0.676178
        inSlope: 0.5898514
        outSlope: 0.5898514
        tangentMode: 34
      - serializedVersion: 2
        time: 6
        value: -0.64860535
        inSlope: -0.95908356
        outSlope: -0.95908356
        tangentMode: 34
      - serializedVersion: 2
        time: 7
        value: -1.2419891
        inSlope: 0.5740509
        outSlope: 0.5740509
        tangentMode: 34
      - serializedVersion: 2
        time: 8
        value: 0.49949646
        inSlope: 1.7414856
        outSlope: 1.7414856
        tangentMode: 34
      m_PreInfinity: 2
      m_PostInfinity: 2
      m_RotationOrder: 4
    attribute: localEulerAnglesBaked.x
    path: 
    classID: 4
    script: {fileID: 0}
  - curve:
      serializedVersion: 2
      m_Curve:
      - serializedVersion: 2
        time: 0
        value: 94.6539
        inSlope: -1.2441101
        outSlope: -1.2441101
        tangentMode: 34
      - serializedVersion: 2
        time: 1
        value: 93.40979
        inSlope: -0.621048
        outSlope: -0.621048
        tangentMode: 34
      - serializedVersion: 2
        time: 2
        value: 93.411804
        inSlope: 0.35923257
        outSlope: 0.35923257
        tangentMode: 34
      - serializedVersion: 2
        time: 3.2
        value: 94.271545
        inSlope: 0.3467051
        outSlope: 0.3467051
        tangentMode: 34
      - serializedVersion: 2
        time: 4
        value: 94.25311
        inSlope: -0.002304078
        outSlope: -0.002304078
        tangentMode: 34
      - serializedVersion: 2
        time: 5
        value: 94.271545
        inSlope: -0.4206543
        outSlope: -0.4206543
        tangentMode: 34
      - serializedVersion: 2
        time: 6
        value: 93.411804
        inSlope: -0.4308777
        outSlope: -0.4308777
        tangentMode: 34
      - serializedVersion: 2
        time: 7
        value: 93.40979
        inSlope: 0.621048
        outSlope: 0.621048
        tangentMode: 34
      - serializedVersion: 2
        time: 8
        value: 94.6539
        inSlope: 1.2441101
        outSlope: 1.2441101
        tangentMode: 34
      m_PreInfinity: 2
      m_PostInfinity: 2
      m_RotationOrder: 4
    attribute: localEulerAnglesBaked.y
    path: 
    classID: 4
    script: {fileID: 0}
  - curve:
      serializedVersion: 2
      m_Curve:
      - serializedVersion: 2
        time: 0
        value: 0.11251831
        inSlope: -0.5724182
        outSlope: -0.5724182
        tangentMode: 34
      - serializedVersion: 2
        time: 1
        value: -0.4598999
        inSlope: 0.041244507
        outSlope: 0.041244507
        tangentMode: 34
      - serializedVersion: 2
        time: 2
        value: 0.19500732
        inSlope: 0.42198816
        outSlope: 0.42198816
        tangentMode: 34
      - serializedVersion: 2
        time: 3.2
        value: 0.42189026
        inSlope: 0.094648995
        outSlope: 0.094648995
        tangentMode: 34
      - serializedVersion: 2
        time: 4
        value: 0.42207336
        inSlope: 0.00002288819
        outSlope: 0.00002288819
        tangentMode: 34
      - serializedVersion: 2
        time: 5
        value: 0.42189026
        inSlope: -0.11353302
        outSlope: -0.11353302
        tangentMode: 34
      - serializedVersion: 2
        time: 6
        value: 0.19500732
        inSlope: -0.44089508
        outSlope: -0.44089508
        tangentMode: 34
      - serializedVersion: 2
        time: 7
        value: -0.4598999
        inSlope: -0.041244507
        outSlope: -0.041244507
        tangentMode: 34
      - serializedVersion: 2
        time: 8
        value: 0.11251831
        inSlope: 0.5724182
        outSlope: 0.5724182
        tangentMode: 34
      m_PreInfinity: 2
      m_PostInfinity: 2
      m_RotationOrder: 4
    attribute: localEulerAnglesBaked.z
    path: 
    classID: 4
    script: {fileID: 0}
  m_HasGenericRootTransform: 1
  m_HasMotionFloatCurves: 0
  m_GenerateMotionCurves: 0
  m_Events: []
