%YAML 1.1
%TAG !u! tag:unity3d.com,2011:
--- !u!1045 &1
EditorBuildSettings:
  m_ObjectHideFlags: 0
  serializedVersion: 2
  m_Scenes:
  - enabled: 1
    path: Assets/Scenes/Main Menu.unity
    guid: eb8ac4b7112a20e4eba2f6a429ef7654
  - enabled: 1
    path: Assets/Scenes/Stadt.unity
    guid: 8914f830565cea44483e734dab9bfd38
  m_configObjects: {}
