%YAML 1.1
%TAG !u! tag:unity3d.com,2011:
--- !u!114 &11400000
MonoBehaviour:
  m_ObjectHideFlags: 0
  m_CorrespondingSourceObject: {fileID: 0}
  m_PrefabInstance: {fileID: 0}
  m_PrefabAsset: {fileID: 0}
  m_GameObject: {fileID: 0}
  m_Enabled: 1
  m_EditorHideFlags: 0
  m_Script: {fileID: 11500000, guid: d23bb10fef1f7714287159c9a39ea5e2, type: 3}
  m_Name: _Resources_Shared Data_Asset List
  m_EditorClassIdentifier: 
  Cars:
  - {fileID: 1562912461902148, guid: f670529213a768844bbfd06764297833, type: 3}
  - {fileID: 1201883580331832, guid: 6fd60d3c5b9877d40a5ad10d759a52b9, type: 3}
  - {fileID: 1725951067139740, guid: 82777692bbe186b4d8f6dba410cbf091, type: 3}
  - {fileID: 1885929045784912, guid: c40f56a7ea816d24db8f3295e079bf1e, type: 3}
  - {fileID: 1674622174089800, guid: e90e2191e471d1a4fad74223b73d8852, type: 3}
  - {fileID: 1366840277520372, guid: d4fc5aa4ef4558a48853fbc4f02cba8f, type: 3}
  - {fileID: 1396547479961966, guid: 9981d51b261de014984272c289747732, type: 3}
  - {fileID: 1384242719305970, guid: adb2dacf087da3a4e8c36b17b03f67a9, type: 3}
  Pedestrians:
  - {fileID: 100144, guid: 2407ef24447978740a623ce25a80177e, type: 3}
  - {fileID: 100144, guid: 1784a31fa0f3402409b7e8d0e46ea992, type: 3}
  - {fileID: 100144, guid: 72a974ea19060354f8d08a93a17c6fba, type: 3}
  - {fileID: 100146, guid: 292dbf1193521dd4b942d0ca1d2e7394, type: 3}
  - {fileID: 100144, guid: 1788ed9578c8c574580bf3cbf31097ec, type: 3}
  - {fileID: 100144, guid: 49717d2d4c830dd4b86480a40ee00d3a, type: 3}
  - {fileID: 100144, guid: b0cff6625f3566440b8b66a74b032e2a, type: 3}
  - {fileID: 100144, guid: 0316bbb2941a26a43bff73851c2fba86, type: 3}
  - {fileID: 100146, guid: e46e1af5ab9ee0042aea6c1a5012e253, type: 3}
  - {fileID: 100144, guid: 9598fde292974be4cb31d8362f1ec167, type: 3}
  - {fileID: 100146, guid: c0f07a04788e4144281f4e21706a49fc, type: 3}
  - {fileID: 100144, guid: bc647c827a365f844acdac36f10c7d99, type: 3}
  - {fileID: 100144, guid: 046a4fb43d72e8e4f92e0a3252b116e3, type: 3}
  - {fileID: 100144, guid: 825a707f6cad41f488c7fde971c13c7b, type: 3}
  - {fileID: 100144, guid: a327653bc82a3944ea97522fd6366017, type: 3}
  - {fileID: 100144, guid: f0af2f54d6f13b34aa07b1464271366c, type: 3}
  - {fileID: 100142, guid: 11559fcf49496ca468f2e896b855dd7a, type: 3}
  - {fileID: 100144, guid: caf99cea26a1eee4f833a20ef4cf37b7, type: 3}
  - {fileID: 100146, guid: ae056a073dba37141948e2a8791f3b8d, type: 3}
  - {fileID: 100146, guid: 3029ba55b0d1aab40ab586c7a3400f37, type: 3}
  - {fileID: 100144, guid: 0cb303649538b6d419c0f166b71d4130, type: 3}
  - {fileID: 100144, guid: c541cef2777fa354a9ea3c72903a8ccd, type: 3}
  - {fileID: 100144, guid: fd0cccdb8fcc1ea428fbf24d2835d0da, type: 3}
  - {fileID: 100144, guid: e62821b40c6f6594bbf561c57941e03f, type: 3}
  - {fileID: 100148, guid: 1558c11120525714eaba88f85db478b1, type: 3}
  - {fileID: 100144, guid: 824ec4c5d5ce0254aac2fd943725e14e, type: 3}
  - {fileID: 100144, guid: c92c5645eeadb2841aaf50b44644bc37, type: 3}
  - {fileID: 100146, guid: 9c5a2d6e5d9bea34f85bf73b6c51d052, type: 3}
  - {fileID: 100144, guid: c085ea70e0d23d34aa389a813ec3cda5, type: 3}
  - {fileID: 100148, guid: cd416ce4b3c79ea439aa9bcc31448925, type: 3}
  - {fileID: 100148, guid: 6fc7adf3ee1d1c94ab9b4a446846e4d9, type: 3}
  - {fileID: 100146, guid: 786cdd8c18d9d9849a6aba8610264412, type: 3}
  - {fileID: 100144, guid: 0b0fd92ff4a40f6469f1ce81ba28252d, type: 3}
  - {fileID: 100144, guid: a476678b4e28d5d47b54ab0347735e7b, type: 3}
  - {fileID: 100146, guid: 1bd9576e01bf50644b9568b5fc7ee5eb, type: 3}
  - {fileID: 100142, guid: 48402a0ee7954704cb6ee503acbfb125, type: 3}
  - {fileID: 100146, guid: b995cd74e46541345be56c8916f903e1, type: 3}
  - {fileID: 100148, guid: d81f114a9420cdc458e07ff1ae723df1, type: 3}
  - {fileID: 100144, guid: cd9aa846e404c7649a538992bd6acc9f, type: 3}
  - {fileID: 100144, guid: 8c59e0ef4e520ab408ae7c37f4301390, type: 3}
  - {fileID: 100150, guid: dc6ba2c3f2dd03440a1a9288a4f8b98b, type: 3}
  - {fileID: 100144, guid: 79c143008c073984d8e975baa9867521, type: 3}
  - {fileID: 100144, guid: 20438dc4a2759b44faf425b1d0019084, type: 3}
  - {fileID: 100144, guid: 7bded3afd5c558b4c8c365af1b3d9027, type: 3}
  - {fileID: 100144, guid: 35486b7caf5fd4548a144f25859dde91, type: 3}
  - {fileID: 100144, guid: f35ad8cfd2ba30743831a6ec40143c0d, type: 3}
  - {fileID: 100146, guid: ab94c89b4894f374f9551b0d721589b4, type: 3}
  - {fileID: 100144, guid: 06993a1ad76dbb540a2a49aabe6003b0, type: 3}
  - {fileID: 100142, guid: 10bec74c49ded45438440b96dda0ed22, type: 3}
  - {fileID: 100146, guid: dd457243ce4a09046bdde81e22f2b95d, type: 3}
  - {fileID: 100146, guid: c155ee8c16703c7478b4db572494442d, type: 3}
  - {fileID: 100146, guid: 0c3994028b19daa45b742308ff133d0d, type: 3}
  - {fileID: 100144, guid: 4556ffe18b5e7054886d6646a63db5fd, type: 3}
  - {fileID: 100142, guid: 59fe0ad37eac2a548bb708e1a94186a0, type: 3}
  - {fileID: 100146, guid: 87c3d70ffeccda44b81e9709b3f7eae4, type: 3}
  - {fileID: 100144, guid: 6e207f8a8452a824888b35b172623990, type: 3}
  - {fileID: 100144, guid: b56223d53fedf274cbde307282924847, type: 3}
  - {fileID: 100146, guid: 77e54d51f787517468568d8e41eaacc7, type: 3}
  - {fileID: 100144, guid: 42fd08d81281cbf47b5a1881f9e46b56, type: 3}
  - {fileID: 100144, guid: 343542b2caa0f0441b81447c7fb27e8e, type: 3}
  - {fileID: 100146, guid: 3587f8807e55fbe4e9261029feef7edb, type: 3}
  - {fileID: 100144, guid: c55bcb5e51ec5c844b12c35625cf3c8c, type: 3}
  - {fileID: 100144, guid: 0637d09c9292e404d9774f7555e7aae0, type: 3}
  - {fileID: 100142, guid: 70b1bc869e12ae74a90df59618a9b782, type: 3}
  - {fileID: 100144, guid: 140cb5588294e364abb5025cc2339d29, type: 3}
  - {fileID: 100144, guid: ff9d263d73b29684baa030d053db94fb, type: 3}
  - {fileID: 100144, guid: 866d73fc1e7fcf649af6b10e713ba955, type: 3}
  - {fileID: 100146, guid: b0a948fb74ee0b94099f534a265e557e, type: 3}
  - {fileID: 100144, guid: 33c2696bc8624c54caf16ac3c336d6c6, type: 3}
  - {fileID: 100144, guid: 223469522d781e24496b402dbb6c6891, type: 3}
  - {fileID: 100144, guid: 128ee758a061b2e44a2db20ac4f2757a, type: 3}
  - {fileID: 100144, guid: d23d1f3344715e24fbe58c6327407c00, type: 3}
  - {fileID: 100144, guid: bb06d0c51a5f3e842b81c73cb5a0ac6c, type: 3}
  - {fileID: 100150, guid: 876f2b2f5e7dba346827dba0c4822b4f, type: 3}
  - {fileID: 100148, guid: 9931cc8d22f388b43b78112b9872612b, type: 3}
  - {fileID: 100146, guid: e017f869299caac4c893c3926533106d, type: 3}
  - {fileID: 100152, guid: 7cfd975ba132f034a9cf130850c71fc3, type: 3}
  - {fileID: 100148, guid: 0b1e9c2f694047c468e41c98d0421e4d, type: 3}
